…
There are 123 earthquakes in the dataset.

### Exercise 2

There are 7 variables in the dataset.

### Exercise 3

``` r
earthquakes %>%
  count(region, sort = TRUE)
```

    ## # A tibble: 39 × 2
    ##    region            n
    ##    <chr>         <int>
    ##  1 Turkey           18
    ##  2 Iran             15
    ##  3 China            14
    ##  4 Japan             8
    ##  5 United States     8
    ##  6 Italy             5
    ##  7 India             4
    ##  8 Chile             3
    ##  9 Nicaragua         3
    ## 10 Pakistan          3
    ## # … with 29 more rows
…
